…
Create the Data Frame

TODO: Need to make sure to figure out the book regex to include books such as 1 Timothy where there are parts of the book

passage <- plain.text %>% 
  mutate(
        Book = str_extract(Text, "^([*?\\w]+)"), 
        Chapter = as.numeric(str_extract(Text,"\\d+(?=:\\n?)")), 
        Verse = as.numeric(str_extract(Text,"(?<=\\:)\\d+")),  
        Line = str_replace(Text, "^([*?\\w]+\\s\\w+\\:\\w+)","")) 

tibble(Text = passage$Text)

## # A tibble: 167 x 1
##    Text                                                                   
##    <chr>                                                                  
##  1 "Esther 1:1 And it happened in the days of Ahasuerus, the Ahasuerus wh…
##  2 "Esther 1:2 In those days as King Ahasuerus was sitting on the throne …
##  3 "Esther 1:3 he gave a banquet in the third year of his reign for all h…
##  4 "Esther 1:4 as he displayed the wealth of the glory of his kingdom and…
##  5 "Esther 1:5 And when those days were completed, the king gave for all …
##  6 "Esther 1:6 There were curtains of finely woven linen and blue cloth t…
##  7 "Esther 1:7 Drinks were served in goblets of gold and goblets of diffe…
##  8 "Esther 1:8 There were no restrictions on the drinking, for the king h…
##  9 "Esther 1:9 Furthermore, Queen Vashti gave a banquet for the women in …
## 10 "Esther 1:10 On the seventh day, when the heart of the king was merry …
## # ... with 157 more rows
…
